Introduction to Generalized Linear Modeling - 3 Binary Regression
…
In addition to our usual packages (tidyverse, easystats, and ggeffects), we will also need to load DHARMa and qqplotr in order to make our plots for our binary regression models.

## Load packages
library(tidyverse)
library(easystats)
library(ggeffects)
library(DHARMa)
library(qqplotr)

## Read in data from file
titanic_data <- read_csv("titanic.csv")
titanic_data

# A tibble: 887 × 5
   sex      age class  fare survived
   <chr>  <dbl> <chr> <dbl> <chr>   
 1 male      22 3rd    7.25 no      
 2 female    38 1st   71.3  yes     
 3 female    26 3rd    7.92 yes     
 4 female    35 1st   53.1  yes     
 5 male      35 3rd    8.05 no      
 6 male      27 3rd    8.46 no      
 7 male      54 1st   51.9  no      
 8 male       2 3rd   21.1  no      
 9 female    27 3rd   11.1  yes     
10 female    14 2nd   30.1  yes     
# ℹ 877 more rows
…
In order to use the survived variable in our analyses, we need to re-code the outcomes as integer numbers. Here, we will use the mutate() function from the dplyr package (which is a package that automatically loaded with tidyverse) to add a new column to our data which re-codes “Yes” = 1 and “No” = 0.

## Prepare the data for analysis
titanic2 <- 
  titanic_data |> 
  mutate(
    survived_b = case_match(
      survived, 
      "no" ~ 0,
      "yes" ~ 1
    )
  )
titanic2 #print

# A tibble: 887 × 6
   sex      age class  fare survived survived_b
   <chr>  <dbl> <chr> <dbl> <chr>         <dbl>
 1 male      22 3rd    7.25 no                0
 2 female    38 1st   71.3  yes               1
 3 female    26 3rd    7.92 yes               1
 4 female    35 1st   53.1  yes               1
 5 male      35 3rd    8.05 no                0
 6 male      27 3rd    8.46 no                0
 7 male      54 1st   51.9  no                0
 8 male       2 3rd   21.1  no                0
 9 female    27 3rd   11.1  yes               1
10 female    14 2nd   30.1  yes               1
# ℹ 877 more rows
…
