Introduction to Generalized Linear Modeling - 4 count-regression
…
In addition to our usual packages (tidyverse, easystats, and ggeffects), we will also need to load DHARMa and qqplotr in order to make our plots for our weighted binary regression models.

## Load packages
library(tidyverse)
library(easystats)
library(ggeffects)
library(DHARMa)
library(qqplotr)

## Read in data from file
depression <- read_csv("depression.csv")
depression

# A tibble: 700 × 6
   participant cohort   age gender  phq9 income_ratio
         <dbl> <chr>  <dbl> <chr>  <dbl>        <dbl>
 1          11 A         40 Male       0         2.73
 2          19 A         65 Male       0         4.17
 3          23 A         18 Female     0         0.85
 4          55 A         19 Female     5         0.09
 5          61 A         19 Male       3         1.4 
 6          77 A         44 Female     2         0.98
 7          97 A         53 Male       0         5   
 8         100 A         60 Female     3         1.55
 9         111 A         55 Male       1         5   
10         113 A         61 Female     1         1.15
# ℹ 690 more rows
…
4.4 Prepare Data / Exploratory Data Analysis

For weighted binomial regression, in order to model the phq9 score as the outcome variable, we need to re-code each phq9 score for each patient as a weighted proportion out of the max score of 27. Here, we will use the mutate() function from the dplyr package (which is a package that automatically loaded with tidyverse) to add a new column to our data with the weighted PHQ-9 score as phq9_p.

depression2 <- 
  depression |> 
  mutate(
    phq9_max = 27, # maximum possible score (can be same or different per row)
    phq9_p = phq9 / phq9_max # proportion of maximum possible score per row
  ) 

depression2

# A tibble: 700 × 8
   participant cohort   age gender  phq9 income_ratio phq9_max phq9_p
         <dbl> <chr>  <dbl> <chr>  <dbl>        <dbl>    <dbl>  <dbl>
 1          11 A         40 Male       0         2.73       27 0     
 2          19 A         65 Male       0         4.17       27 0     
 3          23 A         18 Female     0         0.85       27 0     
 4          55 A         19 Female     5         0.09       27 0.185 
 5          61 A         19 Male       3         1.4        27 0.111 
 6          77 A         44 Female     2         0.98       27 0.0741
 7          97 A         53 Male       0         5          27 0     
 8         100 A         60 Female     3         1.55       27 0.111 
 9         111 A         55 Male       1         5          27 0.0370
10         113 A         61 Female     1         1.15       27 0.0370
# ℹ 690 more rows
…
