Introduction to Generalized Linear Modeling - 2 Linear models
…
## Read data from file
polysim <- read_csv("polysim.csv")

Rows: 100 Columns: 4
── Column specification ────────────────────────────────────────────────────────
Delimiter: ","
dbl (4): x, y1, y2, y3

ℹ Use `spec()` to retrieve the full column specification for this data.
ℹ Specify the column types or set `show_col_types = FALSE` to quiet this message.

polysim

# A tibble: 100 × 4
       x     y1      y2     y3
   <dbl>  <dbl>   <dbl>  <dbl>
 1  24.7  0.464   0.660  -3.24
 2  23.4 -2.87    2.27    7.32
 3  21.6 -4.27  -11.9     4.69
 4  24.0  0.137   0.263  11.7 
 5  20.3 -3.85  -17.7   -51.1 
 6  21.2 -2.07   -9.68   -2.43
 7  24.3 -2.75   -0.193   6.20
 8  26.2  1.21    0.923 -13.1 
 9  22.6 -2.34   -3.93    7.80
10  24.8  0.612   3.07   -1.46
# ℹ 90 more rows
…
