6 Ordinal Regression – Introduction to Generalized Linear Modeling
…
In addition to our usual packages (tidyverse, easystats, and ggeffects), we will also need to load the ordinal package in order to use a cumulative (link) model.

## Load packages
library(tidyverse)
library(easystats)
library(ggeffects)
library(qqplotr)
library(ordinal)

## Read in data from file
gradapp <- read_csv("gradapp.csv")
gradapp

# A tibble: 400 × 4
   apply           pared public   gpa
   <chr>           <chr> <chr>  <dbl>
 1 very likely     no    no      3.26
 2 somewhat likely yes   no      3.21
 3 unlikely        yes   yes     3.94
 4 somewhat likely no    no      2.81
 5 somewhat likely no    no      2.53
 6 unlikely        no    yes     2.59
 7 somewhat likely no    no      2.56
 8 somewhat likely no    no      2.73
 9 unlikely        no    no      3   
10 somewhat likely yes   no      3.5 
# ℹ 390 more rows
…
6.5 Prepare Data / Exploratory Data Analysis

In order to use the apply variable in our analyses, we need to re-code this variable. First, we will use the factor() function to set the order levels/categories of our apply outcome variable to be used in a proper ordinal regression model. Notice that once we do this, the column label under apply changed from  to , meaning it is now an ordinal variable.

## Prepare the data for ordinal model
gradapp$apply <- factor(gradapp$apply, 
       levels = c("unlikely", "somewhat likely", "very likely"), #Must indicate order
       ordered = TRUE)
gradapp #print

# A tibble: 400 × 4
   apply           pared public   gpa
   <ord>           <chr> <chr>  <dbl>
 1 very likely     no    no      3.26
 2 somewhat likely yes   no      3.21
 3 unlikely        yes   yes     3.94
 4 somewhat likely no    no      2.81
 5 somewhat likely no    no      2.53
 6 unlikely        no    yes     2.59
 7 somewhat likely no    no      2.56
 8 somewhat likely no    no      2.73
 9 unlikely        no    no      3   
10 somewhat likely yes   no      3.5 
# ℹ 390 more rows
…
## Prepare the data for analysis
gradapp2 <- 
  gradapp |> 
  mutate(
    gradapp_n = case_match(
      apply, 
      "unlikely" ~ 1,
      "somewhat likely" ~ 2,
      "very likely" ~ 3
    )
  )
gradapp2 #print

# A tibble: 400 × 5
   apply           pared public   gpa gradapp_n
   <ord>           <chr> <chr>  <dbl>     <dbl>
 1 very likely     no    no      3.26         3
 2 somewhat likely yes   no      3.21         2
 3 unlikely        yes   yes     3.94         1
 4 somewhat likely no    no      2.81         2
 5 somewhat likely no    no      2.53         2
 6 unlikely        no    yes     2.59         1
 7 somewhat likely no    no      2.56         2
 8 somewhat likely no    no      2.73         2
 9 unlikely        no    no      3            1
10 somewhat likely yes   no      3.5          2
# ℹ 390 more rows
…
