2 Regression Recap – Introduction to Generalized Linear Modeling
…
Note

One way of installing new R packages is to use the install.packages() command

## Load packages
library(tidyverse)
library(easystats)
library(ggeffects)

## Read in data from file
yearspubs <- read_csv("yearspubs.csv")
yearspubs #print 

# A tibble: 62 × 5
   years_since_phd n_pubs sex    n_cites salary
             <dbl>  <dbl> <chr>    <dbl>  <dbl>
 1               3     18 female      50  21876
 2               6      3 female      26  54511
 3               3      2 female      50  53425
 4               8     17 male        34  61863
 5               9     11 female      41  52926
 6               6      6 male        37  47034
 7              16     38 male        48  66432
 8              10     48 male        56  61100
 9               2      9 male        19  41934
10               5     22 male        29  97454
# ℹ 52 more rows
…
