Introduction to Generalized Linear Modeling - 5 unbounded-count-regression
…
Data:  fish_example.csv  

5.4.1 Loading the Packages and Reading in Data

## Load packages
library(tidyverse)
library(easystats)
library(ggeffects)
library(MASS) #needed for Negative Binomial Regression

## Read in data from file
fishing <- read_csv("fish_example.csv")
fishing

# A tibble: 600 × 4
    Fish   Age   Sex Experience
   <dbl> <dbl> <dbl>      <dbl>
 1     3  19.9     1          2
 2     3  20.5     1          6
 3     1  24.1     0          2
 4     5  21.1     1          5
 5     4  21.3     0          4
 6     1  24.4     1          1
 7     2  21.9     0          8
 8     3  18.5     0          4
 9     4  19.6     1          6
10     2  20.1     1          4
# ℹ 590 more rows
…
Data:  depression.csv  

5.5.1 Loading the Packages and Reading in Data

## Load packages
library(tidyverse)
library(easystats)
library(ggeffects)
library(MASS) #needed for Negative Binomial Regression

## Read in data from file
affairs <- read_csv("affairs.csv")
affairs

# A tibble: 601 × 8
   affairs gender   age yearsmarried children religiousness education
     <dbl> <chr>  <dbl>        <dbl> <chr>            <dbl>     <dbl>
 1       0 male      37        10    no                   3        18
 2       0 female    27         4    no                   4        14
 3       0 female    32        15    yes                  1        12
 4       0 male      57        15    yes                  5        18
 5       0 male      22         0.75 no                   2        17
 6       0 female    32         1.5  no                   2        17
 7       0 female    22         0.75 no                   2        12
 8       0 male      57        15    yes                  2        14
 9       0 female    32        15    yes                  4        16
10       0 male      22         1.5  no                   4        14
# ℹ 591 more rows
# ℹ 1 more variable: satisfaction <dbl>
…
